{
    "type" : "mysql",
    "host" : "localhost",
    "port" : 3306,
    "username" : "root",
    "password" : "FILL THIS!",
    "database" : "FILL THIS!",
    "synchronize" : true,
    "migrationsTableName" : "migrations",
    "entities" : ["dist/entities/**/*.js"],
    "migrations": ["dist/migrations/**/*.js"]
}